L = 100.0e3 ; 
W = 20.0e3 ; 
Mesh.Algorithm = 2 ; 
lc =  600.0 ; 
Point(1) = {0.0,0.0,0.0,lc}; 
Point(2) = { L ,0.0,0.0,lc}; 
Translate {0.0, W , 0.0} {Duplicata{Point{2} ; } }
Translate {0.0, W , 0.0} {Duplicata{Point{1} ; } }
Point(5)={ 5.0000000e+03, 1.0000000e+03,0.0,lc}; 
Point(6)={ 8.0000000e+03, 1.0000000e+03,0.0,lc}; 
Point(7)={ 2.7000000e+04, 1.0000000e+03,0.0,lc}; 
Point(8)={ 4.4000000e+04, 1.0000000e+03,0.0,lc}; 
Point(9)={ 7.5000000e+04, 1.0000000e+03,0.0,lc}; 
Point(10)={ 7.8000000e+04, 1.0000000e+03,0.0,lc}; 
Point(11)={ 9.4000000e+04, 1.0000000e+03,0.0,lc}; 
Point(12)={ 1.1000000e+04, 2.0000000e+03,0.0,lc}; 
Point(13)={ 2.9000000e+04, 2.0000000e+03,0.0,lc}; 
Point(14)={ 4.3000000e+04, 2.0000000e+03,0.0,lc}; 
Point(15)={ 5.6000000e+04, 2.0000000e+03,0.0,lc}; 
Point(16)={ 6.5000000e+04, 2.0000000e+03,0.0,lc}; 
Point(17)={ 6.8000000e+04, 2.0000000e+03,0.0,lc}; 
Point(18)={ 7.7000000e+04, 2.0000000e+03,0.0,lc}; 
Point(19)={ 6.0000000e+03, 3.0000000e+03,0.0,lc}; 
Point(20)={ 9.0000000e+04, 3.0000000e+03,0.0,lc}; 
Point(21)={ 9.9000000e+04, 3.0000000e+03,0.0,lc}; 
Point(22)={ 6.0000000e+03, 4.0000000e+03,0.0,lc}; 
Point(23)={ 8.0000000e+03, 4.0000000e+03,0.0,lc}; 
Point(24)={ 1.2000000e+04, 4.0000000e+03,0.0,lc}; 
Point(25)={ 2.1000000e+04, 4.0000000e+03,0.0,lc}; 
Point(26)={ 5.0000000e+04, 4.0000000e+03,0.0,lc}; 
Point(27)={ 5.6000000e+04, 4.0000000e+03,0.0,lc}; 
Point(28)={ 6.7000000e+04, 4.0000000e+03,0.0,lc}; 
Point(29)={ 8.9000000e+04, 4.0000000e+03,0.0,lc}; 
Point(30)={ 6.0000000e+03, 5.0000000e+03,0.0,lc}; 
Point(31)={ 1.3000000e+04, 5.0000000e+03,0.0,lc}; 
Point(32)={ 1.4000000e+04, 5.0000000e+03,0.0,lc}; 
Point(33)={ 2.3000000e+04, 5.0000000e+03,0.0,lc}; 
Point(34)={ 3.2000000e+04, 5.0000000e+03,0.0,lc}; 
Point(35)={ 4.0000000e+04, 5.0000000e+03,0.0,lc}; 
Point(36)={ 5.2000000e+04, 5.0000000e+03,0.0,lc}; 
Point(37)={ 5.0000000e+03, 6.0000000e+03,0.0,lc}; 
Point(38)={ 1.9000000e+04, 6.0000000e+03,0.0,lc}; 
Point(39)={ 3.1000000e+04, 6.0000000e+03,0.0,lc}; 
Point(40)={ 3.2000000e+04, 6.0000000e+03,0.0,lc}; 
Point(41)={ 6.4000000e+04, 6.0000000e+03,0.0,lc}; 
Point(42)={ 5.7000000e+04, 7.0000000e+03,0.0,lc}; 
Point(43)={ 6.6000000e+04, 7.0000000e+03,0.0,lc}; 
Point(44)={ 9.4000000e+04, 7.0000000e+03,0.0,lc}; 
Point(45)={ 5.0000000e+03, 8.0000000e+03,0.0,lc}; 
Point(46)={ 4.1000000e+04, 8.0000000e+03,0.0,lc}; 
Point(47)={ 5.0000000e+03, 9.0000000e+03,0.0,lc}; 
Point(48)={ 6.0000000e+03, 9.0000000e+03,0.0,lc}; 
Point(49)={ 8.0000000e+03, 9.0000000e+03,0.0,lc}; 
Point(50)={ 2.0000000e+04, 9.0000000e+03,0.0,lc}; 
Point(51)={ 2.2000000e+04, 9.0000000e+03,0.0,lc}; 
Point(52)={ 2.8000000e+04, 9.0000000e+03,0.0,lc}; 
Point(53)={ 6.1000000e+04, 9.0000000e+03,0.0,lc}; 
Point(54)={ 6.4000000e+04, 9.0000000e+03,0.0,lc}; 
Point(55)={ 7.1000000e+04, 9.0000000e+03,0.0,lc}; 
Point(56)={ 5.0000000e+03, 1.0000000e+04,0.0,lc}; 
Point(57)={ 1.2000000e+04, 1.0000000e+04,0.0,lc}; 
Point(58)={ 1.5000000e+04, 1.0000000e+04,0.0,lc}; 
Point(59)={ 2.0000000e+04, 1.0000000e+04,0.0,lc}; 
Point(60)={ 3.0000000e+04, 1.0000000e+04,0.0,lc}; 
Point(61)={ 7.3000000e+04, 1.0000000e+04,0.0,lc}; 
Point(62)={ 8.8000000e+04, 1.0000000e+04,0.0,lc}; 
Point(63)={ 5.0000000e+03, 1.1000000e+04,0.0,lc}; 
Point(64)={ 8.0000000e+03, 1.1000000e+04,0.0,lc}; 
Point(65)={ 4.7000000e+04, 1.1000000e+04,0.0,lc}; 
Point(66)={ 7.9000000e+04, 1.1000000e+04,0.0,lc}; 
Point(67)={ 1.4000000e+04, 1.2000000e+04,0.0,lc}; 
Point(68)={ 1.7000000e+04, 1.2000000e+04,0.0,lc}; 
Point(69)={ 3.1000000e+04, 1.2000000e+04,0.0,lc}; 
Point(70)={ 9.1000000e+04, 1.2000000e+04,0.0,lc}; 
Point(71)={ 5.0000000e+03, 1.3000000e+04,0.0,lc}; 
Point(72)={ 7.0000000e+03, 1.3000000e+04,0.0,lc}; 
Point(73)={ 1.0000000e+04, 1.3000000e+04,0.0,lc}; 
Point(74)={ 1.5000000e+04, 1.3000000e+04,0.0,lc}; 
Point(75)={ 3.4000000e+04, 1.3000000e+04,0.0,lc}; 
Point(76)={ 4.1000000e+04, 1.3000000e+04,0.0,lc}; 
Point(77)={ 4.9000000e+04, 1.3000000e+04,0.0,lc}; 
Point(78)={ 5.4000000e+04, 1.3000000e+04,0.0,lc}; 
Point(79)={ 5.0000000e+03, 1.4000000e+04,0.0,lc}; 
Point(80)={ 1.1000000e+04, 1.4000000e+04,0.0,lc}; 
Point(81)={ 1.3000000e+04, 1.4000000e+04,0.0,lc}; 
Point(82)={ 3.7000000e+04, 1.4000000e+04,0.0,lc}; 
Point(83)={ 5.8000000e+04, 1.4000000e+04,0.0,lc}; 
Point(84)={ 5.0000000e+03, 1.5000000e+04,0.0,lc}; 
Point(85)={ 1.3000000e+04, 1.5000000e+04,0.0,lc}; 
Point(86)={ 1.4000000e+04, 1.5000000e+04,0.0,lc}; 
Point(87)={ 1.7000000e+04, 1.5000000e+04,0.0,lc}; 
Point(88)={ 2.3000000e+04, 1.6000000e+04,0.0,lc}; 
Point(89)={ 3.0000000e+04, 1.6000000e+04,0.0,lc}; 
Point(90)={ 3.8000000e+04, 1.6000000e+04,0.0,lc}; 
Point(91)={ 3.9000000e+04, 1.6000000e+04,0.0,lc}; 
Point(92)={ 5.5000000e+04, 1.6000000e+04,0.0,lc}; 
Point(93)={ 5.7000000e+04, 1.6000000e+04,0.0,lc}; 
Point(94)={ 5.0000000e+03, 1.7000000e+04,0.0,lc}; 
Point(95)={ 1.3000000e+04, 1.7000000e+04,0.0,lc}; 
Point(96)={ 2.2000000e+04, 1.7000000e+04,0.0,lc}; 
Point(97)={ 5.4000000e+04, 1.7000000e+04,0.0,lc}; 
Point(98)={ 8.3000000e+04, 1.7000000e+04,0.0,lc}; 
Point(99)={ 5.0000000e+03, 1.8000000e+04,0.0,lc}; 
Point(100)={ 1.2000000e+04, 1.8000000e+04,0.0,lc}; 
Point(101)={ 4.7000000e+04, 1.8000000e+04,0.0,lc}; 
Point(102)={ 5.3000000e+04, 1.8000000e+04,0.0,lc}; 
Point(103)={ 7.4000000e+04, 1.8000000e+04,0.0,lc}; 
Point(104)={ 9.4000000e+04, 1.8000000e+04,0.0,lc}; 
Line(1) = {1,2} ; 
Line(2) = {2,3} ; 
Line(3) = {4,3} ; 
Line(4) = {4,1} ; 
Line Loop(5) = {1,2,-3,4}; 
Plane Surface(10) = {5}; 
Point{5} In Surface{10}; 
Point{6} In Surface{10}; 
Point{7} In Surface{10}; 
Point{8} In Surface{10}; 
Point{9} In Surface{10}; 
Point{10} In Surface{10}; 
Point{11} In Surface{10}; 
Point{12} In Surface{10}; 
Point{13} In Surface{10}; 
Point{14} In Surface{10}; 
Point{15} In Surface{10}; 
Point{16} In Surface{10}; 
Point{17} In Surface{10}; 
Point{18} In Surface{10}; 
Point{19} In Surface{10}; 
Point{20} In Surface{10}; 
Point{21} In Surface{10}; 
Point{22} In Surface{10}; 
Point{23} In Surface{10}; 
Point{24} In Surface{10}; 
Point{25} In Surface{10}; 
Point{26} In Surface{10}; 
Point{27} In Surface{10}; 
Point{28} In Surface{10}; 
Point{29} In Surface{10}; 
Point{30} In Surface{10}; 
Point{31} In Surface{10}; 
Point{32} In Surface{10}; 
Point{33} In Surface{10}; 
Point{34} In Surface{10}; 
Point{35} In Surface{10}; 
Point{36} In Surface{10}; 
Point{37} In Surface{10}; 
Point{38} In Surface{10}; 
Point{39} In Surface{10}; 
Point{40} In Surface{10}; 
Point{41} In Surface{10}; 
Point{42} In Surface{10}; 
Point{43} In Surface{10}; 
Point{44} In Surface{10}; 
Point{45} In Surface{10}; 
Point{46} In Surface{10}; 
Point{47} In Surface{10}; 
Point{48} In Surface{10}; 
Point{49} In Surface{10}; 
Point{50} In Surface{10}; 
Point{51} In Surface{10}; 
Point{52} In Surface{10}; 
Point{53} In Surface{10}; 
Point{54} In Surface{10}; 
Point{55} In Surface{10}; 
Point{56} In Surface{10}; 
Point{57} In Surface{10}; 
Point{58} In Surface{10}; 
Point{59} In Surface{10}; 
Point{60} In Surface{10}; 
Point{61} In Surface{10}; 
Point{62} In Surface{10}; 
Point{63} In Surface{10}; 
Point{64} In Surface{10}; 
Point{65} In Surface{10}; 
Point{66} In Surface{10}; 
Point{67} In Surface{10}; 
Point{68} In Surface{10}; 
Point{69} In Surface{10}; 
Point{70} In Surface{10}; 
Point{71} In Surface{10}; 
Point{72} In Surface{10}; 
Point{73} In Surface{10}; 
Point{74} In Surface{10}; 
Point{75} In Surface{10}; 
Point{76} In Surface{10}; 
Point{77} In Surface{10}; 
Point{78} In Surface{10}; 
Point{79} In Surface{10}; 
Point{80} In Surface{10}; 
Point{81} In Surface{10}; 
Point{82} In Surface{10}; 
Point{83} In Surface{10}; 
Point{84} In Surface{10}; 
Point{85} In Surface{10}; 
Point{86} In Surface{10}; 
Point{87} In Surface{10}; 
Point{88} In Surface{10}; 
Point{89} In Surface{10}; 
Point{90} In Surface{10}; 
Point{91} In Surface{10}; 
Point{92} In Surface{10}; 
Point{93} In Surface{10}; 
Point{94} In Surface{10}; 
Point{95} In Surface{10}; 
Point{96} In Surface{10}; 
Point{97} In Surface{10}; 
Point{98} In Surface{10}; 
Point{99} In Surface{10}; 
Point{100} In Surface{10}; 
Point{101} In Surface{10}; 
Point{102} In Surface{10}; 
Point{103} In Surface{10}; 
Point{104} In Surface{10}; 
Physical Point(1) = {5}; 
Physical Point(2) = {6}; 
Physical Point(3) = {7}; 
Physical Point(4) = {8}; 
Physical Point(5) = {9}; 
Physical Point(6) = {10}; 
Physical Point(7) = {11}; 
Physical Point(8) = {12}; 
Physical Point(9) = {13}; 
Physical Point(10) = {14}; 
Physical Point(11) = {15}; 
Physical Point(12) = {16}; 
Physical Point(13) = {17}; 
Physical Point(14) = {18}; 
Physical Point(15) = {19}; 
Physical Point(16) = {20}; 
Physical Point(17) = {21}; 
Physical Point(18) = {22}; 
Physical Point(19) = {23}; 
Physical Point(20) = {24}; 
Physical Point(21) = {25}; 
Physical Point(22) = {26}; 
Physical Point(23) = {27}; 
Physical Point(24) = {28}; 
Physical Point(25) = {29}; 
Physical Point(26) = {30}; 
Physical Point(27) = {31}; 
Physical Point(28) = {32}; 
Physical Point(29) = {33}; 
Physical Point(30) = {34}; 
Physical Point(31) = {35}; 
Physical Point(32) = {36}; 
Physical Point(33) = {37}; 
Physical Point(34) = {38}; 
Physical Point(35) = {39}; 
Physical Point(36) = {40}; 
Physical Point(37) = {41}; 
Physical Point(38) = {42}; 
Physical Point(39) = {43}; 
Physical Point(40) = {44}; 
Physical Point(41) = {45}; 
Physical Point(42) = {46}; 
Physical Point(43) = {47}; 
Physical Point(44) = {48}; 
Physical Point(45) = {49}; 
Physical Point(46) = {50}; 
Physical Point(47) = {51}; 
Physical Point(48) = {52}; 
Physical Point(49) = {53}; 
Physical Point(50) = {54}; 
Physical Point(51) = {55}; 
Physical Point(52) = {56}; 
Physical Point(53) = {57}; 
Physical Point(54) = {58}; 
Physical Point(55) = {59}; 
Physical Point(56) = {60}; 
Physical Point(57) = {61}; 
Physical Point(58) = {62}; 
Physical Point(59) = {63}; 
Physical Point(60) = {64}; 
Physical Point(61) = {65}; 
Physical Point(62) = {66}; 
Physical Point(63) = {67}; 
Physical Point(64) = {68}; 
Physical Point(65) = {69}; 
Physical Point(66) = {70}; 
Physical Point(67) = {71}; 
Physical Point(68) = {72}; 
Physical Point(69) = {73}; 
Physical Point(70) = {74}; 
Physical Point(71) = {75}; 
Physical Point(72) = {76}; 
Physical Point(73) = {77}; 
Physical Point(74) = {78}; 
Physical Point(75) = {79}; 
Physical Point(76) = {80}; 
Physical Point(77) = {81}; 
Physical Point(78) = {82}; 
Physical Point(79) = {83}; 
Physical Point(80) = {84}; 
Physical Point(81) = {85}; 
Physical Point(82) = {86}; 
Physical Point(83) = {87}; 
Physical Point(84) = {88}; 
Physical Point(85) = {89}; 
Physical Point(86) = {90}; 
Physical Point(87) = {91}; 
Physical Point(88) = {92}; 
Physical Point(89) = {93}; 
Physical Point(90) = {94}; 
Physical Point(91) = {95}; 
Physical Point(92) = {96}; 
Physical Point(93) = {97}; 
Physical Point(94) = {98}; 
Physical Point(95) = {99}; 
Physical Point(96) = {100}; 
Physical Point(97) = {101}; 
Physical Point(98) = {102}; 
Physical Point(99) = {103}; 
Physical Point(100) = {104}; 
Physical Line(101) = {1}; 
Physical Line(102) = {2}; 
Physical Line(103) = {3}; 
Physical Line(104) = {4}; 
Physical Surface(105) = {10}; 
